<?xml version="1.0" encoding="UTF-8" standalone="no"?>
<svg
   xmlns:dc="http://purl.org/dc/elements/1.1/"
   xmlns:cc="http://creativecommons.org/ns#"
   xmlns:rdf="http://www.w3.org/1999/02/22-rdf-syntax-ns#"
   xmlns:svg="http://www.w3.org/2000/svg"
   xmlns="http://www.w3.org/2000/svg"
   xmlns:sodipodi="http://sodipodi.sourceforge.net/DTD/sodipodi-0.dtd"
   xmlns:inkscape="http://www.inkscape.org/namespaces/inkscape"
   width="108.47916mm"
   height="161.76668mm"
   viewBox="0 0 108.47916 161.76668"
   version="1.1"
   id="svg5972"
   inkscape:export-filename="/home/hyperion/Projekte/pki/icon.png"
   inkscape:export-xdpi="31.37561"
   inkscape:export-ydpi="31.37561"
   inkscape:version="1.0.1 (3bc2e813f5, 2020-09-07, custom)"
   sodipodi:docname="icon.svg">
  <defs
     id="defs5966" />
  <sodipodi:namedview
     id="base"
     pagecolor="#ffffff"
     bordercolor="#666666"
     borderopacity="1.0"
     inkscape:pageopacity="0.0"
     inkscape:pageshadow="2"
     inkscape:zoom="0.1547976"
     inkscape:cx="816.20065"
     inkscape:cy="818.96924"
     inkscape:document-units="mm"
     inkscape:current-layer="layer1"
     inkscape:document-rotation="0"
     showgrid="false"
     inkscape:window-width="2560"
     inkscape:window-height="1388"
     inkscape:window-x="0"
     inkscape:window-y="24"
     inkscape:window-maximized="1"
     fit-margin-top="0"
     fit-margin-left="0"
     fit-margin-right="0"
     fit-margin-bottom="0" />
  <metadata
     id="metadata5969">
    <rdf:RDF>
      <cc:Work
         rdf:about="">
        <dc:format>image/svg+xml</dc:format>
        <dc:type
           rdf:resource="http://purl.org/dc/dcmitype/StillImage" />
        <dc:title></dc:title>
      </cc:Work>
    </rdf:RDF>
  </metadata>
  <g
     inkscape:label="Ebene 1"
     inkscape:groupmode="layer"
     id="layer1"
     transform="translate(-30.366864,-31.925258)">
    <path
       id="path2606"
       style="fill:#ffffff;fill-opacity:1;stroke:none;stroke-width:0.132;stroke-linecap:round;stroke-linejoin:round;stroke-miterlimit:4;stroke-dasharray:none;stroke-opacity:1"
       d="M 136.67259,34.571093 H 44.068499 l -10.5834,10.583 V 108.65409 H 136.67259 Z"
       sodipodi:nodetypes="cccccc" />
    <path
       id="path2608"
       style="fill:#87cdde;fill-opacity:1;stroke:none;stroke-width:0.132;stroke-linecap:round;stroke-linejoin:round;stroke-miterlimit:4;stroke-dasharray:none;stroke-opacity:1"
       d="M 137.52309,108.65409 H 34.335599 V 150.3121 H 137.52309 Z"
       sodipodi:nodetypes="ccccc" />
    <path
       id="path2610"
       style="fill:#ff6600;fill-opacity:1;stroke:none;stroke-width:0.132;stroke-linecap:round;stroke-linejoin:round;stroke-miterlimit:4;stroke-dasharray:none;stroke-opacity:1"
       d="M 136.20019,150.0641 H 33.012699 v 40.982 H 136.20019 Z"
       sodipodi:nodetypes="ccccc" />
    <path
       style="fill:none;fill-rule:evenodd;stroke:#ff6600;stroke-width:5.29167;stroke-linecap:butt;stroke-linejoin:miter;stroke-miterlimit:4;stroke-dasharray:none;stroke-opacity:1"
       d="M 33.012699,191.0461 V 45.747093 l 11.0558,-11.176 H 136.20019 V 191.0461 Z"
       id="path2612"
       sodipodi:nodetypes="cccccc" />
    <text
       xml:space="preserve"
       style="font-size:32.7599px;line-height:0%;font-family:'Roboto Condensed';-inkscape-font-specification:'Roboto Condensed, ';letter-spacing:0px;word-spacing:0px;fill:#000000;fill-opacity:1;stroke:none;stroke-width:0.264583px;stroke-linecap:butt;stroke-linejoin:miter;stroke-opacity:1"
       x="53.195732"
       y="101.17726"
       id="text2656"><tspan
         sodipodi:role="line"
         id="tspan2654"
         x="53.195732"
         y="101.17726"
         style="fill:#000000;fill-opacity:1;stroke:none;stroke-width:0.264583px">PKI</tspan></text>
    <text
       xml:space="preserve"
       style="font-size:32.7599px;line-height:0%;font-family:'Roboto Condensed';-inkscape-font-specification:'Roboto Condensed, ';letter-spacing:0px;word-spacing:0px;fill:#000000;fill-opacity:1;stroke:none;stroke-width:0.264583px;stroke-linecap:butt;stroke-linejoin:miter;stroke-opacity:1"
       x="53.195732"
       y="67.794922"
       id="text6567"><tspan
         sodipodi:role="line"
         id="tspan6565"
         x="53.195732"
         y="67.794922"
         style="fill:#000000;fill-opacity:1;stroke:none;stroke-width:0.264583px">x509</tspan></text>
  </g>
</svg>
